(module lsf-kicad-lib:PQ9 (layer F.Cu) (tedit 5AB4C58B)
  (fp_text reference PQ1 (at -11 38) (layer F.SilkS)
    (effects (font (size 1 1) (thickness 0.15)))
  )
  (fp_text value PQ9-Connector (at -11 36 180) (layer F.Fab)
    (effects (font (size 1 1) (thickness 0.15)))
  )
  (fp_text user V4 (at 6 3 90) (layer F.SilkS)
    (effects (font (size 1 1) (thickness 0.15)))
  )
  (fp_text user V3 (at 4 3 90) (layer F.SilkS)
    (effects (font (size 1 1) (thickness 0.15)))
  )
  (fp_text user V2 (at 2 3 90) (layer F.SilkS)
    (effects (font (size 1 1) (thickness 0.15)))
  )
  (fp_text user V1 (at 0 3 90) (layer F.SilkS)
    (effects (font (size 1 1) (thickness 0.15)))
  )
  (fp_text user D+ (at -4 3 90) (layer F.SilkS)
    (effects (font (size 1 1) (thickness 0.15)))
  )
  (fp_text user D- (at -6 3 90) (layer F.SilkS)
    (effects (font (size 1 1) (thickness 0.15)))
  )
  (fp_text user GND (at 8 3 90) (layer F.SilkS)
    (effects (font (size 1 1) (thickness 0.15)))
  )
  (fp_text user GND (at -2 3 90) (layer F.SilkS)
    (effects (font (size 1 1) (thickness 0.15)))
  )
  (fp_line (start -18 -2) (end 18 -2) (layer F.SilkS) (width 0.15))
  (fp_line (start 21 1) (end 21 37) (layer F.SilkS) (width 0.15))
  (fp_arc (start 18 1) (end 18 -2) (angle 90) (layer F.SilkS) (width 0.15))
  (fp_arc (start 18 37) (end 21 37) (angle 90) (layer F.SilkS) (width 0.15))
  (fp_line (start -21 1) (end -21 37) (layer F.SilkS) (width 0.15))
  (fp_arc (start -18 37) (end -18 40) (angle 90) (layer F.SilkS) (width 0.15))
  (fp_line (start -18 40) (end -16 40) (layer F.SilkS) (width 0.15))
  (fp_line (start 18 40) (end 16 40) (layer F.SilkS) (width 0.15))
  (fp_arc (start -15 40) (end -16 40) (angle 89.9) (layer F.SilkS) (width 0.15))
  (fp_arc (start 15 40) (end 15 39) (angle 90) (layer F.SilkS) (width 0.15))
  (fp_line (start -15 39) (end 15 39) (layer F.SilkS) (width 0.15))
  (fp_arc (start -18 1) (end -21 1) (angle 89.9) (layer F.SilkS) (width 0.15))
  (fp_line (start -9.2 -1.2) (end -9.2 1.2) (layer F.SilkS) (width 0.1))
  (fp_line (start 9.2 0.6) (end 9.2 -0.6) (layer F.SilkS) (width 0.1))
  (fp_line (start -9.2 -1.2) (end -7 -1.2) (layer F.SilkS) (width 0.1))
  (fp_line (start -9.2 1.2) (end -7 1.2) (layer F.SilkS) (width 0.1))
  (fp_line (start -5.4 -1.2) (end -5 -0.8) (layer F.SilkS) (width 0.1))
  (fp_line (start -5 -0.8) (end -4.6 -1.2) (layer F.SilkS) (width 0.1))
  (fp_line (start -4.6 1.2) (end -5 0.8) (layer F.SilkS) (width 0.1))
  (fp_line (start -5 0.8) (end -5.4 1.2) (layer F.SilkS) (width 0.1))
  (fp_line (start -3.4 -1.2) (end -3 -0.8) (layer F.SilkS) (width 0.1))
  (fp_line (start -3 -0.8) (end -2.6 -1.2) (layer F.SilkS) (width 0.1))
  (fp_line (start -3.4 1.2) (end -3 0.8) (layer F.SilkS) (width 0.1))
  (fp_line (start -3 0.8) (end -2.6 1.2) (layer F.SilkS) (width 0.1))
  (fp_line (start -1.4 -1.2) (end -1 -0.8) (layer F.SilkS) (width 0.1))
  (fp_line (start -1 -0.8) (end -0.6 -1.2) (layer F.SilkS) (width 0.1))
  (fp_line (start -1.4 1.2) (end -1 0.8) (layer F.SilkS) (width 0.1))
  (fp_line (start -1 0.8) (end -0.6 1.2) (layer F.SilkS) (width 0.1))
  (fp_line (start 0.6 -1.2) (end 1 -0.8) (layer F.SilkS) (width 0.1))
  (fp_line (start 1 -0.8) (end 1.4 -1.2) (layer F.SilkS) (width 0.1))
  (fp_line (start 0.6 1.2) (end 1 0.8) (layer F.SilkS) (width 0.1))
  (fp_line (start 1 0.8) (end 1.4 1.2) (layer F.SilkS) (width 0.1))
  (fp_line (start 2.6 -1.2) (end 3 -0.8) (layer F.SilkS) (width 0.1))
  (fp_line (start 3 -0.8) (end 3.4 -1.2) (layer F.SilkS) (width 0.1))
  (fp_line (start 4.6 -1.2) (end 5 -0.8) (layer F.SilkS) (width 0.1))
  (fp_line (start 5 -0.8) (end 5.4 -1.2) (layer F.SilkS) (width 0.1))
  (fp_line (start 2.6 1.2) (end 3 0.8) (layer F.SilkS) (width 0.1))
  (fp_line (start 3 0.8) (end 3.4 1.2) (layer F.SilkS) (width 0.1))
  (fp_line (start 4.6 1.2) (end 5 0.8) (layer F.SilkS) (width 0.1))
  (fp_line (start 5 0.8) (end 5.4 1.2) (layer F.SilkS) (width 0.1))
  (fp_line (start 6.6 1.2) (end 7 0.8) (layer F.SilkS) (width 0.1))
  (fp_line (start 7 0.8) (end 7.4 1.2) (layer F.SilkS) (width 0.1))
  (fp_line (start 8.6 1.2) (end 9.2 0.6) (layer F.SilkS) (width 0.1))
  (fp_line (start 6.6 -1.2) (end 7 -0.8) (layer F.SilkS) (width 0.1))
  (fp_line (start 7 -0.8) (end 7.4 -1.2) (layer F.SilkS) (width 0.1))
  (fp_line (start 7.4 -1.2) (end 8.6 -1.2) (layer F.SilkS) (width 0.1))
  (fp_line (start 8.6 -1.2) (end 9.2 -0.6) (layer F.SilkS) (width 0.1))
  (fp_line (start -4.6 -1.2) (end -3.4 -1.2) (layer F.SilkS) (width 0.1))
  (fp_line (start -2.6 -1.2) (end -1.4 -1.2) (layer F.SilkS) (width 0.1))
  (fp_line (start -0.6 -1.2) (end 0.6 -1.2) (layer F.SilkS) (width 0.1))
  (fp_line (start 1.4 -1.2) (end 2.6 -1.2) (layer F.SilkS) (width 0.1))
  (fp_line (start 3.4 -1.2) (end 4.6 -1.2) (layer F.SilkS) (width 0.1))
  (fp_line (start 5.4 -1.2) (end 6.6 -1.2) (layer F.SilkS) (width 0.1))
  (fp_line (start 7.4 1.2) (end 8.6 1.2) (layer F.SilkS) (width 0.1))
  (fp_line (start 5.4 1.2) (end 6.6 1.2) (layer F.SilkS) (width 0.1))
  (fp_line (start 3.4 1.2) (end 4.6 1.2) (layer F.SilkS) (width 0.1))
  (fp_line (start 1.4 1.2) (end 2.6 1.2) (layer F.SilkS) (width 0.1))
  (fp_line (start -0.6 1.2) (end 0.6 1.2) (layer F.SilkS) (width 0.1))
  (fp_line (start -2.6 1.2) (end -1.4 1.2) (layer F.SilkS) (width 0.1))
  (fp_line (start -4.6 1.2) (end -3.4 1.2) (layer F.SilkS) (width 0.1))
  (fp_line (start -5.4 -1.2) (end -6.4 -1.2) (layer F.SilkS) (width 0.1))
  (fp_line (start -6.4 1.2) (end -5.4 1.2) (layer F.SilkS) (width 0.1))
  (fp_text user RST (at -8 3 90) (layer F.SilkS)
    (effects (font (size 1 1) (thickness 0.15)))
  )
  (pad 9 thru_hole oval (at 8 0) (size 1.5 1.5) (drill 0.9) (layers *.Cu *.Mask)
    (solder_mask_margin 0.2))
  (pad 8 thru_hole oval (at 6 0) (size 1.5 1.5) (drill 0.9) (layers *.Cu *.Mask)
    (solder_mask_margin 0.2))
  (pad 7 thru_hole oval (at 4 0) (size 1.5 1.5) (drill 0.9) (layers *.Cu *.Mask)
    (solder_mask_margin 0.2))
  (pad 6 thru_hole oval (at 2 0) (size 1.5 1.5) (drill 0.9) (layers *.Cu *.Mask)
    (solder_mask_margin 0.2))
  (pad 5 thru_hole oval (at 0 0) (size 1.5 1.5) (drill 0.9) (layers *.Cu *.Mask)
    (solder_mask_margin 0.2))
  (pad 4 thru_hole oval (at -2 0) (size 1.5 1.5) (drill 0.9) (layers *.Cu *.Mask)
    (solder_mask_margin 0.2))
  (pad 3 thru_hole oval (at -4 0) (size 1.5 1.5) (drill 0.9) (layers *.Cu *.Mask)
    (solder_mask_margin 0.2))
  (pad 2 thru_hole oval (at -6 0) (size 1.5 1.5) (drill 0.9) (layers *.Cu *.Mask)
    (solder_mask_margin 0.2))
  (pad 1 thru_hole rect (at -8 0) (size 1.5 1.5) (drill 0.9) (layers *.Cu *.Mask)
    (solder_mask_margin 0.2))
  (pad "" np_thru_hole circle (at -18 37) (size 5 5) (drill 2.5) (layers *.Cu *.Mask)
    (solder_mask_margin 0.5))
  (pad "" np_thru_hole circle (at 18 37) (size 5 5) (drill 2.5) (layers *.Cu *.Mask)
    (solder_mask_margin 0.5))
  (pad "" np_thru_hole circle (at -18 1) (size 5 5) (drill 2.5) (layers *.Cu *.Mask)
    (solder_mask_margin 0.5))
  (pad "" np_thru_hole circle (at 18 1) (size 5 5) (drill 2.5) (layers *.Cu *.Mask)
    (solder_mask_margin 0.5))
)
