M48
;DRILL file {KiCad (2017-10-24 revision 302f23426)-master} date Sat Dec  9 17:54:58 2017
;FORMAT={-:-/ absolute / metric / decimal}
FMAT,2
METRIC,TZ
T1C2.500
%
G90
G05
M71
T1
X141.Y-99.
X141.Y-135.
X176.Y-99.
X176.Y-135.
X92.Y-99.
X92.Y-135.
X127.Y-99.
X127.Y-135.
T0
M30
